h = 0.5; // in [0.15, 0.1, 0.075, 0.05]

Geometry.Tolerance = 0.0001;
// Define points
p0 = newp; Point(p0) = {0.5, 0.0, 1.0, h };
p1 = newp; Point(p1) = {0.5, 0.0, 0.0, h };
p2 = newp; Point(p2) = {0.5, 1.0, 0.0, h };
p3 = newp; Point(p3) = {0.5, 1.0, 1.0, h };
p4 = newp; Point(p4) = {0.0, 0.5, 0.0, h };
p5 = newp; Point(p5) = {1.0, 0.5, 0.0, h };
p6 = newp; Point(p6) = {1.0, 0.5, 1.0, h };
p7 = newp; Point(p7) = {0.0, 0.5, 1.0, h };
p8 = newp; Point(p8) = {0.0, 0.0, 0.5, h };
p9 = newp; Point(p9) = {1.0, 0.0, 0.5, h };
p10 = newp; Point(p10) = {1.0, 1.0, 0.5, h };
p11 = newp; Point(p11) = {0.0, 1.0, 0.5, h };
p12 = newp; Point(p12) = {0.75, 0.5, 1.0, h };
p13 = newp; Point(p13) = {0.75, 0.5, 0.5, h };
p14 = newp; Point(p14) = {0.75, 1.0, 0.5, h };
p15 = newp; Point(p15) = {0.75, 1.0, 1.0, h };
p16 = newp; Point(p16) = {0.5, 0.5, 0.75, h };
p17 = newp; Point(p17) = {1.0, 0.5, 0.75, h };
p18 = newp; Point(p18) = {1.0, 1.0, 0.75, h };
p19 = newp; Point(p19) = {0.5, 1.0, 0.75, h };
p20 = newp; Point(p20) = {0.5, 0.75, 0.5, h };
p21 = newp; Point(p21) = {1.0, 0.75, 0.5, h };
p22 = newp; Point(p22) = {1.0, 0.75, 1.0, h };
p23 = newp; Point(p23) = {0.5, 0.75, 1.0, h };
p24 = newp; Point(p24) = {0.5, 0.625, 0.5, h };
p25 = newp; Point(p25) = {0.75, 0.625, 0.5, h };
p26 = newp; Point(p26) = {0.75, 0.625, 0.75, h };
p27 = newp; Point(p27) = {0.5, 0.625, 0.75, h };
p28 = newp; Point(p28) = {0.625, 0.5, 0.75, h };
p29 = newp; Point(p29) = {0.625, 0.5, 0.5, h };
p30 = newp; Point(p30) = {0.625, 0.75, 0.5, h };
p31 = newp; Point(p31) = {0.625, 0.75, 0.75, h };
p32 = newp; Point(p32) = {0.5, 0.5, 0.625, h };
p33 = newp; Point(p33) = {0.75, 0.5, 0.625, h };
p34 = newp; Point(p34) = {0.75, 0.75, 0.625, h };
p35 = newp; Point(p35) = {0.5, 0.75, 0.625, h };
p36 = newp; Point(p36) = {0.0, 0.0, 1.0, h };
p37 = newp; Point(p37) = {0.0, 0.0, 0.0, h };
p38 = newp; Point(p38) = {0.0, 1.0, 0.0, h };
p39 = newp; Point(p39) = {0.0, 1.0, 1.0, h };
p40 = newp; Point(p40) = {1.0, 0.0, 1.0, h };
p41 = newp; Point(p41) = {1.0, 0.0, 0.0, h };
p42 = newp; Point(p42) = {1.0, 1.0, 0.0, h };
p43 = newp; Point(p43) = {1.0, 1.0, 1.0, h };
p44 = newp; Point(p44) = {0.5, 0.5, 0.0, h };
p45 = newp; Point(p45) = {0.5, 0.5, 1.0, h };
p46 = newp; Point(p46) = {0.5, 0.0, 0.5, h };
p47 = newp; Point(p47) = {0.5, 1.0, 0.5, h };
p48 = newp; Point(p48) = {1.0, 0.5, 0.5, h };
p49 = newp; Point(p49) = {0.0, 0.5, 0.5, h };
p50 = newp; Point(p50) = {0.75, 0.5, 0.75, h };
p51 = newp; Point(p51) = {0.75, 1.0, 0.75, h };
p52 = newp; Point(p52) = {0.75, 0.75, 0.5, h };
p53 = newp; Point(p53) = {0.75, 0.75, 1.0, h };
p54 = newp; Point(p54) = {1.0, 0.75, 0.75, h };
p55 = newp; Point(p55) = {0.5, 0.75, 0.75, h };
p56 = newp; Point(p56) = {0.625, 0.625, 0.5, h };
p57 = newp; Point(p57) = {0.625, 0.625, 0.75, h };
p58 = newp; Point(p58) = {0.75, 0.625, 0.625, h };
p59 = newp; Point(p59) = {0.5, 0.625, 0.625, h };
p60 = newp; Point(p60) = {0.625, 0.5, 0.625, h };
p61 = newp; Point(p61) = {0.625, 0.75, 0.625, h };
p62 = newp; Point(p62) = {0.5, 0.5, 0.5, h };
p63 = newp; Point(p63) = {0.75, 0.75, 0.75, h };
p64 = newp; Point(p64) = {0.625, 0.625, 0.625, h };

// points to respect outlet area
Point(66) = {1.0, 0.875, 1.0, h};
Point(67) = {1.0, 1.0, 0.875, h};
Point(68) = {1.0, 0.875, 0.875, h};
Point(69) = {0.875, 1.0, 0.875, h};
Point(70) = {0.875, 1.0, 1.0, h};
Point(71) = {0.875, 0.875, 1.0, h};
Point(72) = {0.875, 0.875, 0.875, h};

// Points for inlet region
Point(73) = {0.25, 0.0, 0.0, h};
Point(74) = {0.0, 0.25, 0.0, h};
Point(75) = {0.0, 0.0, 0.25, h};
Point(76) = {0.25, 0.0, 0.25, h};
Point(77) = {0.0, 0.25, 0.25, h};
Point(78) = {0.25, 0.25, 0.25, h};
Point(79) = {0.25, 0.25, 0.0, h};

// End of point specification

// Define lines
frac_line_0= newl; Line(frac_line_0) = {p0, p36};
// Physical Line("AUXILIARY_LINE_0") = {frac_line_0};

frac_line_1= newl; Line(frac_line_1) = {p0, p40};
// Physical Line("AUXILIARY_LINE_1") = {frac_line_1};

frac_line_2= newl; Line(frac_line_2) = {p0, p45};
// Physical Line("AUXILIARY_LINE_2") = {frac_line_2};

frac_line_3= newl; Line(frac_line_3) = {p0, p46};
// Physical Line("AUXILIARY_LINE_3") = {frac_line_3};

frac_line_4= newl; Line(frac_line_4) = {p1, 73};
// Physical Line("AUXILIARY_LINE_4") = {frac_line_4};

frac_line_5= newl; Line(frac_line_5) = {p1, p41};
// Physical Line("AUXILIARY_LINE_5") = {frac_line_5};

frac_line_6= newl; Line(frac_line_6) = {p1, p44};
// Physical Line("AUXILIARY_LINE_6") = {frac_line_6};

frac_line_7= newl; Line(frac_line_7) = {p1, p46};
// Physical Line("AUXILIARY_LINE_7") = {frac_line_7};

frac_line_8= newl; Line(frac_line_8) = {p2, p38};
// Physical Line("AUXILIARY_LINE_8") = {frac_line_8};

frac_line_9= newl; Line(frac_line_9) = {p2, p42};
// Physical Line("AUXILIARY_LINE_9") = {frac_line_9};

frac_line_10= newl; Line(frac_line_10) = {p2, p44};
// Physical Line("AUXILIARY_LINE_10") = {frac_line_10};

frac_line_11= newl; Line(frac_line_11) = {p2, p47};
// Physical Line("AUXILIARY_LINE_11") = {frac_line_11};

frac_line_12= newl; Line(frac_line_12) = {p3, p15};
// Physical Line("AUXILIARY_LINE_12") = {frac_line_12};

frac_line_13= newl; Line(frac_line_13) = {p3, p19};
// Physical Line("AUXILIARY_LINE_13") = {frac_line_13};

frac_line_14= newl; Line(frac_line_14) = {p3, p23};
// Physical Line("AUXILIARY_LINE_14") = {frac_line_14};

frac_line_15= newl; Line(frac_line_15) = {p3, p39};
// Physical Line("AUXILIARY_LINE_15") = {frac_line_15};

frac_line_16= newl; Line(frac_line_16) = {p4, 74};
// Physical Line("AUXILIARY_LINE_16") = {frac_line_16};

frac_line_17= newl; Line(frac_line_17) = {p4, p38};
// Physical Line("AUXILIARY_LINE_17") = {frac_line_17};

frac_line_18= newl; Line(frac_line_18) = {p4, p44};
// Physical Line("AUXILIARY_LINE_18") = {frac_line_18};

frac_line_19= newl; Line(frac_line_19) = {p4, p49};
// Physical Line("AUXILIARY_LINE_19") = {frac_line_19};

frac_line_20= newl; Line(frac_line_20) = {p5, p41};
// Physical Line("AUXILIARY_LINE_20") = {frac_line_20};

frac_line_21= newl; Line(frac_line_21) = {p5, p42};
// Physical Line("AUXILIARY_LINE_21") = {frac_line_21};

frac_line_22= newl; Line(frac_line_22) = {p5, p44};
// Physical Line("AUXILIARY_LINE_22") = {frac_line_22};

frac_line_23= newl; Line(frac_line_23) = {p5, p48};
// Physical Line("AUXILIARY_LINE_23") = {frac_line_23};

frac_line_24= newl; Line(frac_line_24) = {p6, p12};
// Physical Line("AUXILIARY_LINE_24") = {frac_line_24};

frac_line_25= newl; Line(frac_line_25) = {p6, p17};
// Physical Line("AUXILIARY_LINE_25") = {frac_line_25};

frac_line_26= newl; Line(frac_line_26) = {p6, p22};
// Physical Line("AUXILIARY_LINE_26") = {frac_line_26};

frac_line_27= newl; Line(frac_line_27) = {p6, p40};
// Physical Line("AUXILIARY_LINE_27") = {frac_line_27};

frac_line_28= newl; Line(frac_line_28) = {p7, p36};
// Physical Line("AUXILIARY_LINE_28") = {frac_line_28};

frac_line_29= newl; Line(frac_line_29) = {p7, p39};
// Physical Line("AUXILIARY_LINE_29") = {frac_line_29};

frac_line_30= newl; Line(frac_line_30) = {p7, p45};
// Physical Line("AUXILIARY_LINE_30") = {frac_line_30};

frac_line_31= newl; Line(frac_line_31) = {p7, p49};
// Physical Line("AUXILIARY_LINE_31") = {frac_line_31};

frac_line_32= newl; Line(frac_line_32) = {p8, p36};
// Physical Line("AUXILIARY_LINE_32") = {frac_line_32};

frac_line_33= newl; Line(frac_line_33) = {p8, 75};
// Physical Line("AUXILIARY_LINE_33") = {frac_line_33};

frac_line_34= newl; Line(frac_line_34) = {p8, p46};
// Physical Line("AUXILIARY_LINE_34") = {frac_line_34};

frac_line_35= newl; Line(frac_line_35) = {p8, p49};
// Physical Line("AUXILIARY_LINE_35") = {frac_line_35};

frac_line_36= newl; Line(frac_line_36) = {p9, p40};
// Physical Line("AUXILIARY_LINE_36") = {frac_line_36};

frac_line_37= newl; Line(frac_line_37) = {p9, p41};
// Physical Line("AUXILIARY_LINE_37") = {frac_line_37};

frac_line_38= newl; Line(frac_line_38) = {p9, p46};
// Physical Line("AUXILIARY_LINE_38") = {frac_line_38};

frac_line_39= newl; Line(frac_line_39) = {p9, p48};
// Physical Line("AUXILIARY_LINE_39") = {frac_line_39};

frac_line_40= newl; Line(frac_line_40) = {p10, p14};
// Physical Line("AUXILIARY_LINE_40") = {frac_line_40};

frac_line_41= newl; Line(frac_line_41) = {p10, p18};
// Physical Line("AUXILIARY_LINE_41") = {frac_line_41};

frac_line_42= newl; Line(frac_line_42) = {p10, p21};
// Physical Line("AUXILIARY_LINE_42") = {frac_line_42};

frac_line_43= newl; Line(frac_line_43) = {p10, p42};
// Physical Line("AUXILIARY_LINE_43") = {frac_line_43};

frac_line_44= newl; Line(frac_line_44) = {p11, p38};
// Physical Line("AUXILIARY_LINE_44") = {frac_line_44};

frac_line_45= newl; Line(frac_line_45) = {p11, p39};
// Physical Line("AUXILIARY_LINE_45") = {frac_line_45};

frac_line_46= newl; Line(frac_line_46) = {p11, p47};
// Physical Line("AUXILIARY_LINE_46") = {frac_line_46};

frac_line_47= newl; Line(frac_line_47) = {p11, p49};
// Physical Line("AUXILIARY_LINE_47") = {frac_line_47};

frac_line_48= newl; Line(frac_line_48) = {p12, p45};
// Physical Line("AUXILIARY_LINE_48") = {frac_line_48};

frac_line_49= newl; Line(frac_line_49) = {p12, p50};
// Physical Line("FRACTURE_LINE_49") = {frac_line_49};

frac_line_50= newl; Line(frac_line_50) = {p12, p53};
// Physical Line("AUXILIARY_LINE_50") = {frac_line_50};

frac_line_51= newl; Line(frac_line_51) = {p13, p25};
// Physical Line("FRACTURE_LINE_51") = {frac_line_51};

frac_line_52= newl; Line(frac_line_52) = {p13, p29};
// Physical Line("FRACTURE_LINE_52") = {frac_line_52};

frac_line_53= newl; Line(frac_line_53) = {p13, p33};
// Physical Line("FRACTURE_LINE_53") = {frac_line_53};

frac_line_54= newl; Line(frac_line_54) = {p13, p48};
// Physical Line("FRACTURE_LINE_54") = {frac_line_54};

frac_line_55= newl; Line(frac_line_55) = {p14, p47};
// Physical Line("AUXILIARY_LINE_55") = {frac_line_55};

frac_line_56= newl; Line(frac_line_56) = {p14, p51};
// Physical Line("AUXILIARY_LINE_56") = {frac_line_56};

frac_line_57= newl; Line(frac_line_57) = {p14, p52};
// Physical Line("FRACTURE_LINE_57") = {frac_line_57};

frac_line_58= newl; Line(frac_line_58) = {p15, 70};
// Physical Line("AUXILIARY_LINE_58") = {frac_line_58};

frac_line_59= newl; Line(frac_line_59) = {p15, p51};
// Physical Line("AUXILIARY_LINE_59") = {frac_line_59};

frac_line_60= newl; Line(frac_line_60) = {p15, p53};
// Physical Line("AUXILIARY_LINE_60") = {frac_line_60};

frac_line_61= newl; Line(frac_line_61) = {p16, p27};
// Physical Line("FRACTURE_LINE_61") = {frac_line_61};

frac_line_62= newl; Line(frac_line_62) = {p16, p28};
// Physical Line("FRACTURE_LINE_62") = {frac_line_62};

frac_line_63= newl; Line(frac_line_63) = {p16, p32};
// Physical Line("FRACTURE_LINE_63") = {frac_line_63};

frac_line_64= newl; Line(frac_line_64) = {p16, p45};
// Physical Line("FRACTURE_LINE_64") = {frac_line_64};

frac_line_65= newl; Line(frac_line_65) = {p17, p48};
// Physical Line("AUXILIARY_LINE_65") = {frac_line_65};

frac_line_66= newl; Line(frac_line_66) = {p17, p50};
// Physical Line("FRACTURE_LINE_66") = {frac_line_66};

frac_line_67= newl; Line(frac_line_67) = {p17, p54};
// Physical Line("AUXILIARY_LINE_67") = {frac_line_67};

frac_line_68= newl; Line(frac_line_68) = {p18, 67};
// Physical Line("AUXILIARY_LINE_68") = {frac_line_68};

frac_line_69= newl; Line(frac_line_69) = {p18, p51};
// Physical Line("AUXILIARY_LINE_69") = {frac_line_69};

frac_line_70= newl; Line(frac_line_70) = {p18, p54};
// Physical Line("AUXILIARY_LINE_70") = {frac_line_70};

frac_line_71= newl; Line(frac_line_71) = {p19, p47};
// Physical Line("AUXILIARY_LINE_71") = {frac_line_71};

frac_line_72= newl; Line(frac_line_72) = {p19, p51};
// Physical Line("AUXILIARY_LINE_72") = {frac_line_72};

frac_line_73= newl; Line(frac_line_73) = {p19, p55};
// Physical Line("FRACTURE_LINE_73") = {frac_line_73};

frac_line_74= newl; Line(frac_line_74) = {p20, p24};
// Physical Line("FRACTURE_LINE_74") = {frac_line_74};

frac_line_75= newl; Line(frac_line_75) = {p20, p30};
// Physical Line("FRACTURE_LINE_75") = {frac_line_75};

frac_line_76= newl; Line(frac_line_76) = {p20, p35};
// Physical Line("FRACTURE_LINE_76") = {frac_line_76};

frac_line_77= newl; Line(frac_line_77) = {p20, p47};
// Physical Line("FRACTURE_LINE_77") = {frac_line_77};

frac_line_78= newl; Line(frac_line_78) = {p21, p48};
// Physical Line("AUXILIARY_LINE_78") = {frac_line_78};

frac_line_79= newl; Line(frac_line_79) = {p21, p52};
// Physical Line("FRACTURE_LINE_79") = {frac_line_79};

frac_line_80= newl; Line(frac_line_80) = {p21, p54};
// Physical Line("AUXILIARY_LINE_80") = {frac_line_80};

frac_line_81= newl; Line(frac_line_81) = {p22, 66};
// Physical Line("AUXILIARY_LINE_81") = {frac_line_81};

frac_line_82= newl; Line(frac_line_82) = {p22, p53};
// Physical Line("AUXILIARY_LINE_82") = {frac_line_82};

frac_line_83= newl; Line(frac_line_83) = {p22, p54};
// Physical Line("AUXILIARY_LINE_83") = {frac_line_83};

frac_line_84= newl; Line(frac_line_84) = {p23, p45};
// Physical Line("AUXILIARY_LINE_84") = {frac_line_84};

frac_line_85= newl; Line(frac_line_85) = {p23, p53};
// Physical Line("AUXILIARY_LINE_85") = {frac_line_85};

frac_line_86= newl; Line(frac_line_86) = {p23, p55};
// Physical Line("FRACTURE_LINE_86") = {frac_line_86};

frac_line_87= newl; Line(frac_line_87) = {p24, p56};
// Physical Line("FRACTURE_LINE_87") = {frac_line_87};

frac_line_88= newl; Line(frac_line_88) = {p24, p59};
// Physical Line("FRACTURE_LINE_88") = {frac_line_88};

frac_line_89= newl; Line(frac_line_89) = {p24, p62};
// Physical Line("FRACTURE_LINE_89") = {frac_line_89};

frac_line_90= newl; Line(frac_line_90) = {p25, p52};
// Physical Line("FRACTURE_LINE_90") = {frac_line_90};

frac_line_91= newl; Line(frac_line_91) = {p25, p56};
// Physical Line("FRACTURE_LINE_91") = {frac_line_91};

frac_line_92= newl; Line(frac_line_92) = {p25, p58};
// Physical Line("FRACTURE_LINE_92") = {frac_line_92};

frac_line_93= newl; Line(frac_line_93) = {p26, p50};
// Physical Line("FRACTURE_LINE_93") = {frac_line_93};

frac_line_94= newl; Line(frac_line_94) = {p26, p57};
// Physical Line("FRACTURE_LINE_94") = {frac_line_94};

frac_line_95= newl; Line(frac_line_95) = {p26, p58};
// Physical Line("FRACTURE_LINE_95") = {frac_line_95};

frac_line_96= newl; Line(frac_line_96) = {p26, p63};
// Physical Line("FRACTURE_LINE_96") = {frac_line_96};

frac_line_97= newl; Line(frac_line_97) = {p27, p55};
// Physical Line("FRACTURE_LINE_97") = {frac_line_97};

frac_line_98= newl; Line(frac_line_98) = {p27, p57};
// Physical Line("FRACTURE_LINE_98") = {frac_line_98};

frac_line_99= newl; Line(frac_line_99) = {p27, p59};
// Physical Line("FRACTURE_LINE_99") = {frac_line_99};

frac_line_100= newl; Line(frac_line_100) = {p28, p50};
// Physical Line("FRACTURE_LINE_100") = {frac_line_100};

frac_line_101= newl; Line(frac_line_101) = {p28, p57};
// Physical Line("FRACTURE_LINE_101") = {frac_line_101};

frac_line_102= newl; Line(frac_line_102) = {p28, p60};
// Physical Line("FRACTURE_LINE_102") = {frac_line_102};

frac_line_103= newl; Line(frac_line_103) = {p29, p56};
// Physical Line("FRACTURE_LINE_103") = {frac_line_103};

frac_line_104= newl; Line(frac_line_104) = {p29, p60};
// Physical Line("FRACTURE_LINE_104") = {frac_line_104};

frac_line_105= newl; Line(frac_line_105) = {p29, p62};
// Physical Line("FRACTURE_LINE_105") = {frac_line_105};

frac_line_106= newl; Line(frac_line_106) = {p30, p52};
// Physical Line("FRACTURE_LINE_106") = {frac_line_106};

frac_line_107= newl; Line(frac_line_107) = {p30, p56};
// Physical Line("FRACTURE_LINE_107") = {frac_line_107};

frac_line_108= newl; Line(frac_line_108) = {p30, p61};
// Physical Line("FRACTURE_LINE_108") = {frac_line_108};

frac_line_109= newl; Line(frac_line_109) = {p31, p55};
// Physical Line("FRACTURE_LINE_109") = {frac_line_109};

frac_line_110= newl; Line(frac_line_110) = {p31, p57};
// Physical Line("FRACTURE_LINE_110") = {frac_line_110};

frac_line_111= newl; Line(frac_line_111) = {p31, p61};
// Physical Line("FRACTURE_LINE_111") = {frac_line_111};

frac_line_112= newl; Line(frac_line_112) = {p31, p63};
// Physical Line("FRACTURE_LINE_112") = {frac_line_112};

frac_line_113= newl; Line(frac_line_113) = {p32, p59};
// Physical Line("FRACTURE_LINE_113") = {frac_line_113};

frac_line_114= newl; Line(frac_line_114) = {p32, p60};
// Physical Line("FRACTURE_LINE_114") = {frac_line_114};

frac_line_115= newl; Line(frac_line_115) = {p32, p62};
// Physical Line("FRACTURE_LINE_115") = {frac_line_115};

frac_line_116= newl; Line(frac_line_116) = {p33, p50};
// Physical Line("FRACTURE_LINE_116") = {frac_line_116};

frac_line_117= newl; Line(frac_line_117) = {p33, p58};
// Physical Line("FRACTURE_LINE_117") = {frac_line_117};

frac_line_118= newl; Line(frac_line_118) = {p33, p60};
// Physical Line("FRACTURE_LINE_118") = {frac_line_118};

frac_line_119= newl; Line(frac_line_119) = {p34, p52};
// Physical Line("FRACTURE_LINE_119") = {frac_line_119};

frac_line_120= newl; Line(frac_line_120) = {p34, p58};
// Physical Line("FRACTURE_LINE_120") = {frac_line_120};

frac_line_121= newl; Line(frac_line_121) = {p34, p61};
// Physical Line("FRACTURE_LINE_121") = {frac_line_121};

frac_line_122= newl; Line(frac_line_122) = {p34, p63};
// Physical Line("FRACTURE_LINE_122") = {frac_line_122};

frac_line_123= newl; Line(frac_line_123) = {p35, p55};
// Physical Line("FRACTURE_LINE_123") = {frac_line_123};

frac_line_124= newl; Line(frac_line_124) = {p35, p59};
// Physical Line("FRACTURE_LINE_124") = {frac_line_124};

frac_line_125= newl; Line(frac_line_125) = {p35, p61};
// Physical Line("FRACTURE_LINE_125") = {frac_line_125};

frac_line_126= newl; Line(frac_line_126) = {p44, p62};
// Physical Line("FRACTURE_LINE_126") = {frac_line_126};

frac_line_127= newl; Line(frac_line_127) = {p46, p62};
// Physical Line("FRACTURE_LINE_127") = {frac_line_127};

frac_line_128= newl; Line(frac_line_128) = {p49, p62};
// Physical Line("FRACTURE_LINE_128") = {frac_line_128};

frac_line_129= newl; Line(frac_line_129) = {p51, p63};
// Physical Line("FRACTURE_LINE_129") = {frac_line_129};

frac_line_130= newl; Line(frac_line_130) = {p53, p63};
// Physical Line("FRACTURE_LINE_130") = {frac_line_130};

frac_line_131= newl; Line(frac_line_131) = {p54, p63};
// Physical Line("FRACTURE_LINE_131") = {frac_line_131};

frac_line_132= newl; Line(frac_line_132) = {p56, p64};
// Physical Line("FRACTURE_LINE_132") = {frac_line_132};

frac_line_133= newl; Line(frac_line_133) = {p57, p64};
// Physical Line("FRACTURE_LINE_133") = {frac_line_133};

frac_line_134= newl; Line(frac_line_134) = {p58, p64};
// Physical Line("FRACTURE_LINE_134") = {frac_line_134};

frac_line_135= newl; Line(frac_line_135) = {p59, p64};
// Physical Line("FRACTURE_LINE_135") = {frac_line_135};

frac_line_136= newl; Line(frac_line_136) = {p60, p64};
// Physical Line("FRACTURE_LINE_136") = {frac_line_136};

frac_line_137= newl; Line(frac_line_137) = {p61, p64};
// Physical Line("FRACTURE_LINE_137") = {frac_line_137};

// lines for the outlet area
Line(139) = {66, 44};
Line(140) = {70, 44};
Line(141) = {70, 71};
Line(142) = {71, 72};
Line(143) = {72, 68};
Line(144) = {68, 66};
Line(145) = {66, 71};
Line(146) = {68, 67};
Line(147) = {67, 69};
Line(148) = {69, 72};
Line(149) = {69, 70};
Line(150) = {67, 44};

// Lines for inlet region
Line(151) = {73, 38};
Line(152) = {74, 38};
Line(153) = {75, 38};
Line(154) = {74, 77};
Line(155) = {77, 78};
Line(156) = {78, 76};
Line(157) = {76, 73};
Line(158) = {76, 75};
Line(159) = {75, 77};
Line(160) = {73, 79};
Line(161) = {79, 78};
Line(162) = {79, 74};

// End of line specification

// Start domain specification
frac_loop_9 = newll;
Line Loop(frac_loop_9) = { frac_line_16, 152, -153, -frac_line_33, frac_line_32, -frac_line_28, frac_line_29, -frac_line_45, frac_line_44, -frac_line_17};
auxiliary_9 = news; Plane Surface(auxiliary_9) = {frac_loop_9};
//Physical Surface("AUXILIARY_9") = {auxiliary_9};
Line{frac_line_19} In Surface{auxiliary_9};
Line{frac_line_31} In Surface{auxiliary_9};
Line{frac_line_35} In Surface{auxiliary_9};
Line{frac_line_47} In Surface{auxiliary_9};

frac_loop_10 = newll;
Line Loop(frac_loop_10) = { frac_line_20, -frac_line_37, frac_line_36, -frac_line_27, frac_line_26, frac_line_81, 139, -150, -frac_line_68, -frac_line_41, frac_line_43, -frac_line_21};
auxiliary_10 = news; Plane Surface(auxiliary_10) = {frac_loop_10};
//Physical Surface("AUXILIARY_10") = {auxiliary_10};
Line{frac_line_23} In Surface{auxiliary_10};
Line{frac_line_25} In Surface{auxiliary_10};
Line{frac_line_39} In Surface{auxiliary_10};
Line{frac_line_42} In Surface{auxiliary_10};
Line{frac_line_65} In Surface{auxiliary_10};
Line{frac_line_67} In Surface{auxiliary_10};
Line{frac_line_70} In Surface{auxiliary_10};
Line{frac_line_78} In Surface{auxiliary_10};
Line{frac_line_80} In Surface{auxiliary_10};
Line{frac_line_83} In Surface{auxiliary_10};

frac_loop_11 = newll;
Line Loop(frac_loop_11) = { frac_line_0, -frac_line_32, frac_line_33, 153, -151, -frac_line_4, frac_line_5, -frac_line_37, frac_line_36, -frac_line_1};
auxiliary_11 = news; Plane Surface(auxiliary_11) = {frac_loop_11};
//Physical Surface("AUXILIARY_11") = {auxiliary_11};
Line{frac_line_3} In Surface{auxiliary_11};
Line{frac_line_7} In Surface{auxiliary_11};
Line{frac_line_34} In Surface{auxiliary_11};
Line{frac_line_38} In Surface{auxiliary_11};

frac_loop_12 = newll;
Line Loop(frac_loop_12) = { frac_line_8, -frac_line_44, frac_line_45, -frac_line_15, frac_line_12, frac_line_58, 140, -150, -frac_line_68, -frac_line_41, frac_line_43, -frac_line_9};
auxiliary_12 = news; Plane Surface(auxiliary_12) = {frac_loop_12};
//Physical Surface("AUXILIARY_12") = {auxiliary_12};
Line{frac_line_11} In Surface{auxiliary_12};
Line{frac_line_13} In Surface{auxiliary_12};
Line{frac_line_40} In Surface{auxiliary_12};
Line{frac_line_46} In Surface{auxiliary_12};
Line{frac_line_55} In Surface{auxiliary_12};
Line{frac_line_56} In Surface{auxiliary_12};
Line{frac_line_59} In Surface{auxiliary_12};
Line{frac_line_69} In Surface{auxiliary_12};
Line{frac_line_71} In Surface{auxiliary_12};
Line{frac_line_72} In Surface{auxiliary_12};

frac_loop_13 = newll;
Line Loop(frac_loop_13) = { frac_line_4, 151, -152, -frac_line_16, frac_line_17, -frac_line_8, frac_line_9, -frac_line_21, frac_line_20, -frac_line_5};
auxiliary_13 = news; Plane Surface(auxiliary_13) = {frac_loop_13};
//Physical Surface("AUXILIARY_13") = {auxiliary_13};
Line{frac_line_6} In Surface{auxiliary_13};
Line{frac_line_10} In Surface{auxiliary_13};
Line{frac_line_18} In Surface{auxiliary_13};
Line{frac_line_22} In Surface{auxiliary_13};

frac_loop_14 = newll;
Line Loop(frac_loop_14) = { frac_line_0, -frac_line_28, frac_line_29, -frac_line_15, frac_line_12, frac_line_58, 140, -139, -frac_line_81, -frac_line_26, frac_line_27, -frac_line_1};
auxiliary_14 = news; Plane Surface(auxiliary_14) = {frac_loop_14};
//Physical Surface("AUXILIARY_14") = {auxiliary_14};
Line{frac_line_2} In Surface{auxiliary_14};
Line{frac_line_14} In Surface{auxiliary_14};
Line{frac_line_24} In Surface{auxiliary_14};
Line{frac_line_30} In Surface{auxiliary_14};
Line{frac_line_48} In Surface{auxiliary_14};
Line{frac_line_50} In Surface{auxiliary_14};
Line{frac_line_60} In Surface{auxiliary_14};
Line{frac_line_82} In Surface{auxiliary_14};
Line{frac_line_84} In Surface{auxiliary_14};
Line{frac_line_85} In Surface{auxiliary_14};

domain_loop = newsl;
Surface Loop(domain_loop) = {auxiliary_9,auxiliary_10,auxiliary_11,auxiliary_12,auxiliary_13,auxiliary_14};
Volume(1) = {domain_loop};
Physical Volume("DOMAIN") = {1};
// End of domain specification

// Start fracture specification
frac_loop_0 = newll;
Line Loop(frac_loop_0) = { frac_line_2, -frac_line_84, -frac_line_14, frac_line_13, frac_line_71, -frac_line_11, frac_line_10, -frac_line_6, frac_line_7, -frac_line_3};
fracture_0 = news; Plane Surface(fracture_0) = {frac_loop_0};
Physical Surface("FRACTURE_0") = {fracture_0};
Surface{fracture_0} In Volume{1};

Line{frac_line_61} In Surface{fracture_0};
Line{frac_line_63} In Surface{fracture_0};
Line{frac_line_64} In Surface{fracture_0};
Line{frac_line_73} In Surface{fracture_0};
Line{frac_line_74} In Surface{fracture_0};
Line{frac_line_76} In Surface{fracture_0};
Line{frac_line_77} In Surface{fracture_0};
Line{frac_line_86} In Surface{fracture_0};
Line{frac_line_88} In Surface{fracture_0};
Line{frac_line_89} In Surface{fracture_0};
Line{frac_line_97} In Surface{fracture_0};
Line{frac_line_99} In Surface{fracture_0};
Line{frac_line_113} In Surface{fracture_0};
Line{frac_line_115} In Surface{fracture_0};
Line{frac_line_123} In Surface{fracture_0};
Line{frac_line_124} In Surface{fracture_0};
Line{frac_line_126} In Surface{fracture_0};
Line{frac_line_127} In Surface{fracture_0};

frac_loop_1 = newll;
Line Loop(frac_loop_1) = { frac_line_18, -frac_line_22, frac_line_23, -frac_line_65, -frac_line_25, frac_line_24, frac_line_48, -frac_line_30, frac_line_31, -frac_line_19};
fracture_1 = news; Plane Surface(fracture_1) = {frac_loop_1};
Physical Surface("FRACTURE_1") = {fracture_1};
Surface{fracture_1} In Volume{1};

Line{frac_line_49} In Surface{fracture_1};
Line{frac_line_52} In Surface{fracture_1};
Line{frac_line_53} In Surface{fracture_1};
Line{frac_line_54} In Surface{fracture_1};
Line{frac_line_62} In Surface{fracture_1};
Line{frac_line_63} In Surface{fracture_1};
Line{frac_line_64} In Surface{fracture_1};
Line{frac_line_66} In Surface{fracture_1};
Line{frac_line_100} In Surface{fracture_1};
Line{frac_line_102} In Surface{fracture_1};
Line{frac_line_104} In Surface{fracture_1};
Line{frac_line_105} In Surface{fracture_1};
Line{frac_line_114} In Surface{fracture_1};
Line{frac_line_115} In Surface{fracture_1};
Line{frac_line_116} In Surface{fracture_1};
Line{frac_line_118} In Surface{fracture_1};
Line{frac_line_126} In Surface{fracture_1};
Line{frac_line_128} In Surface{fracture_1};

frac_loop_2 = newll;
Line Loop(frac_loop_2) = { frac_line_34, -frac_line_38, frac_line_39, -frac_line_78, -frac_line_42, frac_line_40, frac_line_55, -frac_line_46, frac_line_47, -frac_line_35};
fracture_2 = news; Plane Surface(fracture_2) = {frac_loop_2};
Physical Surface("FRACTURE_2") = {fracture_2};
Surface{fracture_2} In Volume{1};

Line{frac_line_51} In Surface{fracture_2};
Line{frac_line_52} In Surface{fracture_2};
Line{frac_line_54} In Surface{fracture_2};
Line{frac_line_57} In Surface{fracture_2};
Line{frac_line_74} In Surface{fracture_2};
Line{frac_line_75} In Surface{fracture_2};
Line{frac_line_77} In Surface{fracture_2};
Line{frac_line_79} In Surface{fracture_2};
Line{frac_line_87} In Surface{fracture_2};
Line{frac_line_89} In Surface{fracture_2};
Line{frac_line_90} In Surface{fracture_2};
Line{frac_line_91} In Surface{fracture_2};
Line{frac_line_103} In Surface{fracture_2};
Line{frac_line_105} In Surface{fracture_2};
Line{frac_line_106} In Surface{fracture_2};
Line{frac_line_107} In Surface{fracture_2};
Line{frac_line_127} In Surface{fracture_2};
Line{frac_line_128} In Surface{fracture_2};

frac_loop_3 = newll;
Line Loop(frac_loop_3) = { frac_line_49, -frac_line_116, -frac_line_53, frac_line_51, frac_line_90, -frac_line_57, frac_line_56, -frac_line_59, frac_line_60, -frac_line_50};
fracture_3 = news; Plane Surface(fracture_3) = {frac_loop_3};
Physical Surface("FRACTURE_3") = {fracture_3};
Surface{fracture_3} In Volume{1};

Line{frac_line_92} In Surface{fracture_3};
Line{frac_line_93} In Surface{fracture_3};
Line{frac_line_95} In Surface{fracture_3};
Line{frac_line_96} In Surface{fracture_3};
Line{frac_line_117} In Surface{fracture_3};
Line{frac_line_119} In Surface{fracture_3};
Line{frac_line_120} In Surface{fracture_3};
Line{frac_line_122} In Surface{fracture_3};
Line{frac_line_129} In Surface{fracture_3};
Line{frac_line_130} In Surface{fracture_3};

frac_loop_4 = newll;
Line Loop(frac_loop_4) = { frac_line_61, frac_line_97, -frac_line_73, frac_line_72, -frac_line_69, frac_line_70, -frac_line_67, frac_line_66, -frac_line_100, -frac_line_62};
fracture_4 = news; Plane Surface(fracture_4) = {frac_loop_4};
Physical Surface("FRACTURE_4") = {fracture_4};
Surface{fracture_4} In Volume{1};

Line{frac_line_93} In Surface{fracture_4};
Line{frac_line_94} In Surface{fracture_4};
Line{frac_line_96} In Surface{fracture_4};
Line{frac_line_98} In Surface{fracture_4};
Line{frac_line_101} In Surface{fracture_4};
Line{frac_line_109} In Surface{fracture_4};
Line{frac_line_110} In Surface{fracture_4};
Line{frac_line_112} In Surface{fracture_4};
Line{frac_line_129} In Surface{fracture_4};
Line{frac_line_131} In Surface{fracture_4};

frac_loop_5 = newll;
Line Loop(frac_loop_5) = { frac_line_75, frac_line_106, -frac_line_79, frac_line_80, -frac_line_83, frac_line_82, -frac_line_85, frac_line_86, -frac_line_123, -frac_line_76};
fracture_5 = news; Plane Surface(fracture_5) = {frac_loop_5};
Physical Surface("FRACTURE_5") = {fracture_5};
Surface{fracture_5} In Volume{1};

Line{frac_line_108} In Surface{fracture_5};
Line{frac_line_109} In Surface{fracture_5};
Line{frac_line_111} In Surface{fracture_5};
Line{frac_line_112} In Surface{fracture_5};
Line{frac_line_119} In Surface{fracture_5};
Line{frac_line_121} In Surface{fracture_5};
Line{frac_line_122} In Surface{fracture_5};
Line{frac_line_125} In Surface{fracture_5};
Line{frac_line_130} In Surface{fracture_5};
Line{frac_line_131} In Surface{fracture_5};

frac_loop_6 = newll;
Line Loop(frac_loop_6) = { frac_line_87, -frac_line_91, frac_line_92, -frac_line_95, frac_line_94, -frac_line_98, frac_line_99, -frac_line_88};
fracture_6 = news; Plane Surface(fracture_6) = {frac_loop_6};
Physical Surface("FRACTURE_6") = {fracture_6};
Surface{fracture_6} In Volume{1};

Line{frac_line_132} In Surface{fracture_6};
Line{frac_line_133} In Surface{fracture_6};
Line{frac_line_134} In Surface{fracture_6};
Line{frac_line_135} In Surface{fracture_6};

frac_loop_7 = newll;
Line Loop(frac_loop_7) = { frac_line_101, -frac_line_110, frac_line_111, -frac_line_108, frac_line_107, -frac_line_103, frac_line_104, -frac_line_102};
fracture_7 = news; Plane Surface(fracture_7) = {frac_loop_7};
Physical Surface("FRACTURE_7") = {fracture_7};
Surface{fracture_7} In Volume{1};

Line{frac_line_132} In Surface{fracture_7};
Line{frac_line_133} In Surface{fracture_7};
Line{frac_line_136} In Surface{fracture_7};
Line{frac_line_137} In Surface{fracture_7};

frac_loop_8 = newll;
Line Loop(frac_loop_8) = { frac_line_113, -frac_line_124, frac_line_125, -frac_line_121, frac_line_120, -frac_line_117, frac_line_118, -frac_line_114};
fracture_8 = news; Plane Surface(fracture_8) = {frac_loop_8};
Physical Surface("FRACTURE_8") = {fracture_8};
Surface{fracture_8} In Volume{1};

Line{frac_line_134} In Surface{fracture_8};
Line{frac_line_135} In Surface{fracture_8};
Line{frac_line_136} In Surface{fracture_8};
Line{frac_line_137} In Surface{fracture_8};

// End of fracture specification

// Start physical point specification
// Physical Point("FRACTURE_POINT_0") = {p13};
// Physical Point("FRACTURE_POINT_1") = {p16};
// Physical Point("FRACTURE_POINT_2") = {p20};
// Physical Point("FRACTURE_POINT_3") = {p24};
// Physical Point("FRACTURE_POINT_4") = {p25};
// Physical Point("FRACTURE_POINT_5") = {p26};
// Physical Point("FRACTURE_POINT_6") = {p27};
// Physical Point("FRACTURE_POINT_7") = {p28};
// Physical Point("FRACTURE_POINT_8") = {p29};
// Physical Point("FRACTURE_POINT_9") = {p30};
// Physical Point("FRACTURE_POINT_10") = {p31};
// Physical Point("FRACTURE_POINT_11") = {p32};
// Physical Point("FRACTURE_POINT_12") = {p33};
// Physical Point("FRACTURE_POINT_13") = {p34};
// Physical Point("FRACTURE_POINT_14") = {p35};
// Physical Point("FRACTURE_POINT_15") = {p50};
// Physical Point("FRACTURE_POINT_16") = {p52};
// Physical Point("FRACTURE_POINT_17") = {p55};
// Physical Point("FRACTURE_POINT_18") = {p56};
// Physical Point("FRACTURE_POINT_19") = {p57};
// Physical Point("FRACTURE_POINT_20") = {p58};
// Physical Point("FRACTURE_POINT_21") = {p59};
// Physical Point("FRACTURE_POINT_22") = {p60};
// Physical Point("FRACTURE_POINT_23") = {p61};
// Physical Point("FRACTURE_POINT_24") = {p62};
// Physical Point("FRACTURE_POINT_25") = {p63};
// Physical Point("FRACTURE_POINT_26") = {p64};
// End of physical point specification

// surfaces to be respected by mesh for outlet area
Curve Loop(1080) = {144, 145, 142, 143};
Plane Surface(1080) = {1080};

Curve Loop(1081) = {146, 147, 148, 143};
Plane Surface(1081) = {1081};

Curve Loop(1082) = {148, -142, -141, -149};
Plane Surface(1082) = {1082};

// surfaces to be respected by the mesh for inlet area
Curve Loop(1083) = {160, 161, 156, 157};
Plane Surface(1083) = {1083};

Curve Loop(1084) = {161, -155, -154, -162};
Plane Surface(1084) = {1084};

Curve Loop(1085) = {158, 159, 155, 156};
Plane Surface(1085) = {1085};

// embedments such that outlet region is respected
Line{144, 146} In Surface{166};
Line{147, 149} In Surface{170};
Line{141, 145} In Surface{174};

Surface{1080, 1081, 1082} In Volume{1};

// embedments such that inlet region is respected
Line{154, 159} In Surface{164};
Line{160, 162} In Surface{172};
Line{157, 158} In Surface{168};

Surface{1083, 1084, 1085} In Volume{1};
